…
``` r
if (!file.exists("data/exp.rda")) {
    dir.create("data", showWarnings = FALSE)
    download.file(
        url = "https://github.com/UCLouvain-BIOINFO/bioc-rnaseq/tree/main/episodes/data/exp.rda?raw=true", 
        destfile = "data/exp.rda"
    )
}
load("data/exp.rda")
exp
```

``` output
# A tibble: 20,000 × 7
   Gene      A1    A2    A3    B1    B2    B3
   <chr>  <dbl> <dbl> <dbl> <dbl> <dbl> <dbl>
 1 Gene1   4.72  4.89  4.51  4.00  4.66  4.67
 2 Gene2   4.61  4.96  4.58  4.53  4.21  4.78
 3 Gene3   4.75  4.70  4.75  4.55  4.89  4.31
 4 Gene4   4.83  4.83  4.43  4.53  4.38  4.55
 5 Gene5   4.68  4.33  4.84  4.58  4.64  4.92
 6 Gene6   4.57  4.74  4.68  4.84  4.42  4.96
 7 Gene7   4.68  4.47  4.50  4.55  4.23  4.67
 8 Gene8   4.59  4.81  4.44  4.45  4.20  4.61
 9 Gene9   4.53  4.84  4.51  4.53  4.61  4.59
10 Gene10  4.74  4.09  4.61  4.33  4.72  4.61
# ℹ 19,990 more rows
```
…
Now, let's apply the t.test on all genes


``` r
res <- exp %>% 
  rowwise() %>% 
  mutate(pval = t.test(c(A1, A2, A3), c(B1,B2,B3))$p.value) %>% 
  ungroup() # to revert the rowwise()
res
```

``` output
# A tibble: 20,000 × 8
   Gene      A1    A2    A3    B1    B2    B3  pval
   <chr>  <dbl> <dbl> <dbl> <dbl> <dbl> <dbl> <dbl>
 1 Gene1   4.72  4.89  4.51  4.00  4.66  4.67 0.367
 2 Gene2   4.61  4.96  4.58  4.53  4.21  4.78 0.362
 3 Gene3   4.75  4.70  4.75  4.55  4.89  4.31 0.474
 4 Gene4   4.83  4.83  4.43  4.53  4.38  4.55 0.249
 5 Gene5   4.68  4.33  4.84  4.58  4.64  4.92 0.632
 6 Gene6   4.57  4.74  4.68  4.84  4.42  4.96 0.679
 7 Gene7   4.68  4.47  4.50  4.55  4.23  4.67 0.682
 8 Gene8   4.59  4.81  4.44  4.45  4.20  4.61 0.286
 9 Gene9   4.53  4.84  4.51  4.53  4.61  4.59 0.689
10 Gene10  4.74  4.09  4.61  4.33  4.72  4.61 0.773
# ℹ 19,990 more rows
```
…
