RNA-seq analysis with Bioconductor: Additional material: Linear models and FDR
…
R

if (!file.exists("data/exp.rda")) {
    dir.create("data", showWarnings = FALSE)
    download.file(
        url = "https://github.com/UCLouvain-BIOINFO/bioc-rnaseq/tree/main/episodes/data/exp.rda?raw=true", 
        destfile = "data/exp.rda"
    )
}
load("data/exp.rda")
exp

OUTPUT

# A tibble: 20,000 × 7
   Gene      A1    A2    A3    B1    B2    B3
   <chr>  <dbl> <dbl> <dbl> <dbl> <dbl> <dbl>
 1 Gene1   4.72  4.89  4.51  4.00  4.66  4.67
 2 Gene2   4.61  4.96  4.58  4.53  4.21  4.78
 3 Gene3   4.75  4.70  4.75  4.55  4.89  4.31
 4 Gene4   4.83  4.83  4.43  4.53  4.38  4.55
 5 Gene5   4.68  4.33  4.84  4.58  4.64  4.92
 6 Gene6   4.57  4.74  4.68  4.84  4.42  4.96
 7 Gene7   4.68  4.47  4.50  4.55  4.23  4.67
 8 Gene8   4.59  4.81  4.44  4.45  4.20  4.61
 9 Gene9   4.53  4.84  4.51  4.53  4.61  4.59
10 Gene10  4.74  4.09  4.61  4.33  4.72  4.61
# ℹ 19,990 more rows

Let’s apply a t.test on all these genes

R

res <- exp %>% 
  rowwise() %>% 
  mutate(pval = t.test(c(A1, A2, A3), c(B1,B2,B3))$p.value) %>% 
  ungroup() # to revert the rowwise()
res

OUTPUT

# A tibble: 20,000 × 8
   Gene      A1    A2    A3    B1    B2    B3  pval
   <chr>  <dbl> <dbl> <dbl> <dbl> <dbl> <dbl> <dbl>
 1 Gene1   4.72  4.89  4.51  4.00  4.66  4.67 0.367
 2 Gene2   4.61  4.96  4.58  4.53  4.21  4.78 0.362
 3 Gene3   4.75  4.70  4.75  4.55  4.89  4.31 0.474
 4 Gene4   4.83  4.83  4.43  4.53  4.38  4.55 0.249
 5 Gene5   4.68  4.33  4.84  4.58  4.64  4.92 0.632
 6 Gene6   4.57  4.74  4.68  4.84  4.42  4.96 0.679
 7 Gene7   4.68  4.47  4.50  4.55  4.23  4.67 0.682
 8 Gene8   4.59  4.81  4.44  4.45  4.20  4.61 0.286
 9 Gene9   4.53  4.84  4.51  4.53  4.61  4.59 0.689
10 Gene10  4.74  4.09  4.61  4.33  4.72  4.61 0.773
# ℹ 19,990 more rows
…
table(res$pval < 0.05)

OUTPUT

FALSE  TRUE
19324   676 

R

res %>% filter(pval < 0.05) %>% 
  arrange(pval)

OUTPUT

# A tibble: 676 × 8
   Gene         A1    A2    A3    B1    B2    B3      pval
   <chr>     <dbl> <dbl> <dbl> <dbl> <dbl> <dbl>     <dbl>
 1 Gene13793  4.41  4.38  4.42  4.75  4.74  4.73 0.0000613
 2 Gene35     4.47  4.45  4.42  4.79  4.75  4.79 0.000104
 3 Gene5006   4.79  4.78  4.75  4.56  4.59  4.57 0.000194
 4 Gene8102   4.31  4.30  4.35  4.60  4.67  4.64 0.000258
 5 Gene11686  4.58  4.60  4.61  4.77  4.74  4.75 0.000266
 6 Gene18641  4.35  4.42  4.35  4.78  4.70  4.78 0.000432
 7 Gene1936   4.47  4.54  4.49  4.79  4.86  4.86 0.000437
 8 Gene14972  4.07  4.15  4.20  4.67  4.55  4.68 0.000963
 9 Gene3211   4.74  4.81  4.75  4.38  4.30  4.42 0.00122
10 Gene10421  4.44  4.48  4.47  4.56  4.59  4.57 0.00153
# ℹ 666 more rows
…
R

exp_modified <- exp

exp_modified[1:1000, c("B1", "B2", "B3")] <- log(matrix(rnorm(1000*3, mean = 300, sd = 20), ncol = 3))

exp_modified <- exp_modified %>% 
  mutate(DE = c(rep(TRUE, 1000), rep(FALSE, 19000)))

exp_modified

OUTPUT

# A tibble: 20,000 × 8
   Gene      A1    A2    A3    B1    B2    B3 DE
   <chr>  <dbl> <dbl> <dbl> <dbl> <dbl> <dbl> <lgl>
 1 Gene1   4.72  4.89  4.51  5.68  5.74  5.68 TRUE
 2 Gene2   4.61  4.96  4.58  5.67  5.58  5.88 TRUE
 3 Gene3   4.75  4.70  4.75  5.72  5.64  5.70 TRUE
 4 Gene4   4.83  4.83  4.43  5.80  5.61  5.83 TRUE
 5 Gene5   4.68  4.33  4.84  5.70  5.67  5.67 TRUE
 6 Gene6   4.57  4.74  4.68  5.58  5.76  5.73 TRUE
 7 Gene7   4.68  4.47  4.50  5.66  5.62  5.65 TRUE
 8 Gene8   4.59  4.81  4.44  5.66  5.80  5.68 TRUE
 9 Gene9   4.53  4.84  4.51  5.80  5.63  5.82 TRUE
10 Gene10  4.74  4.09  4.61  5.63  5.70  5.55 TRUE
# ℹ 19,990 more rows
…
