…
The [msigdbr](https://cran.r-project.org/web/packages/msigdbr/index.html) CRAN package
provides the MSigDB gene sets in a standard R data frame with key-value pairs.

One can use msigdbr_collections() to see the available collections


``` r
msigdbr_collections()
```

``` output
# A tibble: 25 × 4
   gs_collection gs_subcollection  gs_collection_name               num_genesets
   <chr>         <chr>             <chr>                                   <int>
 1 C1            ""                Positional                                302
 2 C2            "CGP"             Chemical and Genetic Perturbati…         3538
 3 C2            "CP"              Canonical Pathways                         19
 4 C2            "CP:BIOCARTA"     BioCarta Pathways                         292
 5 C2            "CP:KEGG_LEGACY"  KEGG Legacy Pathways                      186
 6 C2            "CP:KEGG_MEDICUS" KEGG Medicus Pathways                     658
 7 C2            "CP:PID"          PID Pathways                              196
 8 C2            "CP:REACTOME"     Reactome Pathways                        1787
 9 C2            "CP:WIKIPATHWAYS" WikiPathways                              885
10 C3            "MIR:MIRDB"       miRDB                                    2377
# ℹ 15 more rows
```
…
How many genes belong to the `GOBP_REGULATION_OF_LYMPHOCYTE_MIGRATION` geneset?


:::::::::::::::::::::::: solution



``` r
GO_BP %>%
  filter(gs_name == "GOBP_REGULATION_OF_LYMPHOCYTE_MIGRATION")
```

``` output
# A tibble: 69 × 2
   gs_name                                 gene_symbol
   <chr>                                   <chr>      
 1 GOBP_REGULATION_OF_LYMPHOCYTE_MIGRATION Abl1       
 2 GOBP_REGULATION_OF_LYMPHOCYTE_MIGRATION Abl2       
 3 GOBP_REGULATION_OF_LYMPHOCYTE_MIGRATION Adam10     
 4 GOBP_REGULATION_OF_LYMPHOCYTE_MIGRATION Adam17     
 5 GOBP_REGULATION_OF_LYMPHOCYTE_MIGRATION Adam8      
 6 GOBP_REGULATION_OF_LYMPHOCYTE_MIGRATION Adtrp      
 7 GOBP_REGULATION_OF_LYMPHOCYTE_MIGRATION Aif1       
 8 GOBP_REGULATION_OF_LYMPHOCYTE_MIGRATION Aire       
 9 GOBP_REGULATION_OF_LYMPHOCYTE_MIGRATION Akt1       
10 GOBP_REGULATION_OF_LYMPHOCYTE_MIGRATION Apod       
# ℹ 59 more rows
```
…
ORA_hallmarks <- enricher(gene          = genes_DE,
                          universe      = geneList,
                          pAdjustMethod = "BH",
                          qvalueCutoff = 1,
                          pvalueCutoff = 1,
                          TERM2GENE     = hallmarks)

ORA_hallmarks_tbl <- as_tibble(ORA_hallmarks) #%>% filter(p.adjust < 0.05)
ORA_hallmarks_tbl %>%
  select(ID, GeneRatio, BgRatio, pvalue, p.adjust)
```

``` output
# A tibble: 31 × 5
   ID                               GeneRatio BgRatio  pvalue p.adjust
   <chr>                            <chr>     <chr>     <dbl>    <dbl>
 1 HALLMARK_XENOBIOTIC_METABOLISM   4/35      185/4049 0.0733    0.830
 2 HALLMARK_FATTY_ACID_METABOLISM   3/35      148/4049 0.134     0.830
 3 HALLMARK_PEROXISOME              2/35      95/4049  0.198     0.830
 4 HALLMARK_ANDROGEN_RESPONSE       2/35      99/4049  0.210     0.830
 5 HALLMARK_BILE_ACID_METABOLISM    2/35      101/4049 0.217     0.830
 6 HALLMARK_IL2_STAT5_SIGNALING     3/35      187/4049 0.218     0.830
 7 HALLMARK_TNFA_SIGNALING_VIA_NFKB 3/35      187/4049 0.218     0.830
 8 HALLMARK_MTORC1_SIGNALING        3/35      196/4049 0.239     0.830
 9 HALLMARK_APICAL_SURFACE          1/35      42/4049  0.307     0.830
10 HALLMARK_KRAS_SIGNALING_DN       2/35      153/4049 0.384     0.830
# ℹ 21 more rows
```
…
set.seed(1)
GSEA_res <- GSEA(geneList,
             seed = TRUE,
             TERM2GENE = GO_BP,
             verbose = FALSE,
             by = "fgsea",
             pvalueCutoff = 1,
             pAdjustMethod = "BH",
             eps = 0)
GSEA_res_tbl <- as_tibble(GSEA_res) %>% filter(p.adjust < 0.05)
GSEA_res_tbl %>% select(ID, setSize, enrichmentScore, NES, pvalue, p.adjust)
```

``` output
# A tibble: 92 × 6
   ID                             setSize enrichmentScore   NES  pvalue p.adjust
   <chr>                            <int>           <dbl> <dbl>   <dbl>    <dbl>
 1 GOBP_CYTOPLASMIC_TRANSLATION       164           0.487  2.12 1.16e-9  3.87e-6
 2 GOBP_PROTEIN_FOLDING               200          -0.470 -2.05 1.55e-9  3.87e-6
 3 GOBP_AXON_DEVELOPMENT              499          -0.363 -1.73 1.99e-8  3.31e-5
 4 GOBP_SUBSTANTIA_NIGRA_DEVELOP…      43          -0.694 -2.34 2.81e-8  3.51e-5
 5 GOBP_ENSHEATHMENT_OF_NEURONS       148          -0.490 -2.05 4.72e-8  4.71e-5
 6 GOBP_NEURAL_NUCLEUS_DEVELOPME…      63          -0.614 -2.24 2.41e-7  2.01e-4
 7 GOBP_MIDBRAIN_DEVELOPMENT           87          -0.545 -2.10 6.88e-7  4.91e-4
 8 GOBP_REGULATION_OF_ADAPTIVE_I…     183           0.426  1.89 9.67e-7  5.62e-4
 9 GOBP_REGULATION_OF_LEUKOCYTE_…     205           0.409  1.84 1.01e-6  5.62e-4
10 GOBP_REGULATION_OF_LYMPHOCYTE…     149           0.454  1.95 1.37e-6  6.87e-4
# ℹ 82 more rows
```
…
