RNA-seq analysis with Bioconductor: Additional material: Linear models and FDR
…
Now, let’s apply the t.test on all genes

R

exp_tbl <- as_tibble(exp, rownames = "Gene") 
res <- exp_tbl %>% 
  rowwise() %>% 
  mutate(pval = t.test(c(A1, A2, A3), c(B1,B2,B3))$p.value) %>% 
  ungroup() # to revert the rowwise()
res

OUTPUT

# A tibble: 20,000 × 8
   Gene      A1    A2    A3    B1    B2    B3  pval
   <chr>  <dbl> <dbl> <dbl> <dbl> <dbl> <dbl> <dbl>
 1 Gene1   76.4  80.1  80.9  83.1  61.5 133.  0.593
 2 Gene2   95.1 103.  108.   98.9 119.   54.8 0.609
 3 Gene3   95.8 110.   99.4  90.0 125.  115.  0.522
 4 Gene4   76.2 106.  122.   79.3  91.8 113.  0.712
 5 Gene5  118.  102.  101.   96.2  88.3 103.  0.177
 6 Gene6   71.9  91.2 105.   98.9 103.   85.5 0.587
 7 Gene7  100.   68.6  86.9  81.3 148.   88.7 0.438
 8 Gene8   86.6 106.   95.8 111.   89.5 108.  0.486
 9 Gene9   77.3  90.3  84.0  69.6 107.   97.1 0.589
10 Gene10 142.   96.6 168.  146.  126.   94.4 0.632
# ℹ 19,990 more rows
…
