RNA-seq analysis with Bioconductor: All in One View
…
R

if (!file.exists("data/exp.rda")) {
    dir.create("data", showWarnings = FALSE)
    download.file(
        url = "https://github.com/UCLouvain-BIOINFO/bioc-rnaseq/tree/main/episodes/data/exp.rda?raw=true", 
        destfile = "data/exp.rda"
    )
}
load("data/exp.rda")
exp

OUTPUT

# A tibble: 20,000 × 7
   Gene      A1    A2    A3    B1    B2    B3
   <chr>  <dbl> <dbl> <dbl> <dbl> <dbl> <dbl>
 1 Gene1   4.72  4.89  4.51  4.00  4.66  4.67
 2 Gene2   4.61  4.96  4.58  4.53  4.21  4.78
 3 Gene3   4.75  4.70  4.75  4.55  4.89  4.31
 4 Gene4   4.83  4.83  4.43  4.53  4.38  4.55
 5 Gene5   4.68  4.33  4.84  4.58  4.64  4.92
 6 Gene6   4.57  4.74  4.68  4.84  4.42  4.96
 7 Gene7   4.68  4.47  4.50  4.55  4.23  4.67
 8 Gene8   4.59  4.81  4.44  4.45  4.20  4.61
 9 Gene9   4.53  4.84  4.51  4.53  4.61  4.59
10 Gene10  4.74  4.09  4.61  4.33  4.72  4.61
# ℹ 19,990 more rows

Let’s apply a t.test on all these genes

R

res <- exp %>% 
  rowwise() %>% 
  mutate(pval = t.test(c(A1, A2, A3), c(B1,B2,B3))$p.value) %>% 
  ungroup() # to revert the rowwise()
res

OUTPUT

# A tibble: 20,000 × 8
   Gene      A1    A2    A3    B1    B2    B3  pval
   <chr>  <dbl> <dbl> <dbl> <dbl> <dbl> <dbl> <dbl>
 1 Gene1   4.72  4.89  4.51  4.00  4.66  4.67 0.367
 2 Gene2   4.61  4.96  4.58  4.53  4.21  4.78 0.362
 3 Gene3   4.75  4.70  4.75  4.55  4.89  4.31 0.474
 4 Gene4   4.83  4.83  4.43  4.53  4.38  4.55 0.249
 5 Gene5   4.68  4.33  4.84  4.58  4.64  4.92 0.632
 6 Gene6   4.57  4.74  4.68  4.84  4.42  4.96 0.679
 7 Gene7   4.68  4.47  4.50  4.55  4.23  4.67 0.682
 8 Gene8   4.59  4.81  4.44  4.45  4.20  4.61 0.286
 9 Gene9   4.53  4.84  4.51  4.53  4.61  4.59 0.689
10 Gene10  4.74  4.09  4.61  4.33  4.72  4.61 0.773
# ℹ 19,990 more rows
…
table(res$pval < 0.05)

OUTPUT

FALSE  TRUE
19324   676 

R

res %>% filter(pval < 0.05) %>% 
  arrange(pval)

OUTPUT

# A tibble: 676 × 8
   Gene         A1    A2    A3    B1    B2    B3      pval
   <chr>     <dbl> <dbl> <dbl> <dbl> <dbl> <dbl>     <dbl>
 1 Gene13793  4.41  4.38  4.42  4.75  4.74  4.73 0.0000613
 2 Gene35     4.47  4.45  4.42  4.79  4.75  4.79 0.000104
 3 Gene5006   4.79  4.78  4.75  4.56  4.59  4.57 0.000194
 4 Gene8102   4.31  4.30  4.35  4.60  4.67  4.64 0.000258
 5 Gene11686  4.58  4.60  4.61  4.77  4.74  4.75 0.000266
 6 Gene18641  4.35  4.42  4.35  4.78  4.70  4.78 0.000432
 7 Gene1936   4.47  4.54  4.49  4.79  4.86  4.86 0.000437
 8 Gene14972  4.07  4.15  4.20  4.67  4.55  4.68 0.000963
 9 Gene3211   4.74  4.81  4.75  4.38  4.30  4.42 0.00122
10 Gene10421  4.44  4.48  4.47  4.56  4.59  4.57 0.00153
# ℹ 666 more rows
…
R

exp_modified <- exp

exp_modified[1:1000, c("B1", "B2", "B3")] <- log(matrix(rnorm(1000*3, mean = 300, sd = 20), ncol = 3))

exp_modified <- exp_modified %>% 
  mutate(DE = c(rep(TRUE, 1000), rep(FALSE, 19000)))

exp_modified

OUTPUT

# A tibble: 20,000 × 8
   Gene      A1    A2    A3    B1    B2    B3 DE
   <chr>  <dbl> <dbl> <dbl> <dbl> <dbl> <dbl> <lgl>
 1 Gene1   4.72  4.89  4.51  5.59  5.78  5.71 TRUE
 2 Gene2   4.61  4.96  4.58  5.73  5.76  5.73 TRUE
 3 Gene3   4.75  4.70  4.75  5.76  5.78  5.73 TRUE
 4 Gene4   4.83  4.83  4.43  5.64  5.66  5.75 TRUE
 5 Gene5   4.68  4.33  4.84  5.68  5.69  5.69 TRUE
 6 Gene6   4.57  4.74  4.68  5.63  5.79  5.84 TRUE
 7 Gene7   4.68  4.47  4.50  5.68  5.74  5.74 TRUE
 8 Gene8   4.59  4.81  4.44  5.78  5.68  5.74 TRUE
 9 Gene9   4.53  4.84  4.51  5.72  5.69  5.56 TRUE
10 Gene10  4.74  4.09  4.61  5.72  5.76  5.73 TRUE
# ℹ 19,990 more rows
…
The msigdbr
CRAN package provides the MSigDB gene sets in a standard R data frame
with key-value pairs.

One can use msigdbr_collections() to see the available
collections

R

msigdbr_collections()

OUTPUT

# A tibble: 25 × 4
   gs_collection gs_subcollection  gs_collection_name               num_genesets
   <chr>         <chr>             <chr>                                   <int>
 1 C1            ""                Positional                                302
 2 C2            "CGP"             Chemical and Genetic Perturbati…         3538
 3 C2            "CP"              Canonical Pathways                         19
 4 C2            "CP:BIOCARTA"     BioCarta Pathways                         292
 5 C2            "CP:KEGG_LEGACY"  KEGG Legacy Pathways                      186
 6 C2            "CP:KEGG_MEDICUS" KEGG Medicus Pathways                     658
 7 C2            "CP:PID"          PID Pathways                              196
 8 C2            "CP:REACTOME"     Reactome Pathways                        1787
 9 C2            "CP:WIKIPATHWAYS" WikiPathways                              885
10 C3            "MIR:MIRDB"       miRDB                                    2377
# ℹ 15 more rows
…
Challenge:

How many genes belong to the
GOBP_REGULATION_OF_LYMPHOCYTE_MIGRATION geneset?

   Show me the solution 

R

GO_BP %>%
  filter(gs_name == "GOBP_REGULATION_OF_LYMPHOCYTE_MIGRATION")

OUTPUT

# A tibble: 69 × 2
   gs_name                                 gene_symbol
   <chr>                                   <chr>
 1 GOBP_REGULATION_OF_LYMPHOCYTE_MIGRATION Abl1
 2 GOBP_REGULATION_OF_LYMPHOCYTE_MIGRATION Abl2
 3 GOBP_REGULATION_OF_LYMPHOCYTE_MIGRATION Adam10
 4 GOBP_REGULATION_OF_LYMPHOCYTE_MIGRATION Adam17
 5 GOBP_REGULATION_OF_LYMPHOCYTE_MIGRATION Adam8
 6 GOBP_REGULATION_OF_LYMPHOCYTE_MIGRATION Adtrp
 7 GOBP_REGULATION_OF_LYMPHOCYTE_MIGRATION Aif1
 8 GOBP_REGULATION_OF_LYMPHOCYTE_MIGRATION Aire
 9 GOBP_REGULATION_OF_LYMPHOCYTE_MIGRATION Akt1
10 GOBP_REGULATION_OF_LYMPHOCYTE_MIGRATION Apod
# ℹ 59 more rows
…
ORA_hallmarks <- enricher(gene          = genes_DE,
                          universe      = geneList,
                          pAdjustMethod = "BH",
                          qvalueCutoff = 1,
                          pvalueCutoff = 1,
                          TERM2GENE     = hallmarks)

ORA_hallmarks_tbl <- as_tibble(ORA_hallmarks) #%>% filter(p.adjust < 0.05)
ORA_hallmarks_tbl %>%
  select(ID, GeneRatio, BgRatio, pvalue, p.adjust)

OUTPUT

# A tibble: 31 × 5
   ID                               GeneRatio BgRatio  pvalue p.adjust
   <chr>                            <chr>     <chr>     <dbl>    <dbl>
 1 HALLMARK_XENOBIOTIC_METABOLISM   4/35      185/4049 0.0733    0.830
 2 HALLMARK_FATTY_ACID_METABOLISM   3/35      148/4049 0.134     0.830
 3 HALLMARK_PEROXISOME              2/35      95/4049  0.198     0.830
 4 HALLMARK_ANDROGEN_RESPONSE       2/35      99/4049  0.210     0.830
 5 HALLMARK_BILE_ACID_METABOLISM    2/35      101/4049 0.217     0.830
 6 HALLMARK_IL2_STAT5_SIGNALING     3/35      187/4049 0.218     0.830
 7 HALLMARK_TNFA_SIGNALING_VIA_NFKB 3/35      187/4049 0.218     0.830
 8 HALLMARK_MTORC1_SIGNALING        3/35      196/4049 0.239     0.830
 9 HALLMARK_APICAL_SURFACE          1/35      42/4049  0.307     0.830
10 HALLMARK_KRAS_SIGNALING_DN       2/35      153/4049 0.384     0.830
# ℹ 21 more rows
…
set.seed(1)
GSEA_res <- GSEA(geneList,
             seed = TRUE,
             TERM2GENE = GO_BP,
             verbose = FALSE,
             by = "fgsea",
             pvalueCutoff = 1,
             pAdjustMethod = "BH",
             eps = 0)
GSEA_res_tbl <- as_tibble(GSEA_res) %>% filter(p.adjust < 0.05)
GSEA_res_tbl %>% select(ID, setSize, enrichmentScore, NES, pvalue, p.adjust)

OUTPUT

# A tibble: 92 × 6
   ID                             setSize enrichmentScore   NES  pvalue p.adjust
   <chr>                            <int>           <dbl> <dbl>   <dbl>    <dbl>
 1 GOBP_CYTOPLASMIC_TRANSLATION       164           0.487  2.12 1.16e-9  3.87e-6
 2 GOBP_PROTEIN_FOLDING               200          -0.470 -2.05 1.55e-9  3.87e-6
 3 GOBP_AXON_DEVELOPMENT              499          -0.363 -1.73 1.99e-8  3.31e-5
 4 GOBP_SUBSTANTIA_NIGRA_DEVELOP…      43          -0.694 -2.34 2.81e-8  3.51e-5
 5 GOBP_ENSHEATHMENT_OF_NEURONS       148          -0.490 -2.05 4.72e-8  4.71e-5
 6 GOBP_NEURAL_NUCLEUS_DEVELOPME…      63          -0.614 -2.24 2.41e-7  2.01e-4
 7 GOBP_MIDBRAIN_DEVELOPMENT           87          -0.545 -2.10 6.88e-7  4.91e-4
 8 GOBP_REGULATION_OF_ADAPTIVE_I…     183           0.426  1.89 9.67e-7  5.62e-4
 9 GOBP_REGULATION_OF_LEUKOCYTE_…     205           0.409  1.84 1.01e-6  5.62e-4
10 GOBP_REGULATION_OF_LYMPHOCYTE…     149           0.454  1.95 1.37e-6  6.87e-4
# ℹ 82 more rows
…
